HW 3
…
HW 3

Intro

One of the most pressing issues in America today is the disproportionate rates of incarceration of POC. To better understand this issue, I am going to analyze the ratio of average incarceration rates by US regions of black populations to white populations. This will show just how much more likely a POC are to be incarcerated than white people are.

Values

## # A tibble: 27 x 2
##     year avg_btw_ratio
##  * <int>         <dbl>
##  1  1990          7.96
##  2  1991          9.86
##  3  1992          8.13
##  4  1993          7.62
##  5  1994          8.01
##  6  1995          9.03
##  7  1996          8.58
##  8  1997          8.92
##  9  1998          8.76
## 10  1999          9.22
## #  with 17 more rows
…
